﻿Fund Holdings as of,"08/Apr/2019"
 
Issuer Ticker,Name,Asset Class,Weight (%),Price,Nominal,Market Value,Notional Value,Sector,ISIN,Exchange,Country,Market Currency
"MSFT","MICROSOFT CORP","Equity","5.38","119.93","482,279.00","57,839,720.47","57,839,720.47","Information Technology","US5949181045","NASDAQ","United States","USD"
"AMZN","AMAZON COM INC","Equity","5.36","1,849.86","31,155.00","57,632,388.30","57,632,388.30","Consumer Discretionary","US0231351067","NASDAQ","United States","USD"
"AAPL","APPLE INC","Equity","5.17","200.10","277,675.00","55,562,767.50","55,562,767.50","Information Technology","US0378331005","NASDAQ","United States","USD"
"MRK","MERCK & CO INC","Equity","2.33","80.95","309,550.00","25,058,072.50","25,058,072.50","Health Care","US58933Y1055","New York Stock Exchange Inc.","United States","USD"
"V","VISA INC CLASS A","Equity","2.20","157.75","149,979.00","23,659,187.25","23,659,187.25","Information Technology","US92826C8394","New York Stock Exchange Inc.","United States","USD"
"PFE","PFIZER INC","Equity","2.13","43.14","530,813.00","22,899,272.82","22,899,272.82","Health Care","US7170811035","New York Stock Exchange Inc.","United States","USD"
"PG","PROCTER & GAMBLE","Equity","1.99","104.97","203,305.00","21,340,925.85","21,340,925.85","Consumer Staples","US7427181091","New York Stock Exchange Inc.","United States","USD"
"MA","MASTERCARD INC CLASS A","Equity","1.89","236.27","86,165.00","20,358,204.55","20,358,204.55","Information Technology","US57636Q1040","New York Stock Exchange Inc.","United States","USD"
"NESN","NESTLE SA","Equity","1.88","95.81","211,193.00","20,233,604.20","20,233,604.20","Consumer Staples","CH0038863350","Six Swiss Exchange Ag","Switzerland","CHF"
"VZ","VERIZON COMMUNICATIONS INC","Equity","1.85","59.13","335,586.00","19,843,200.18","19,843,200.18","Communication","US92343V1044","New York Stock Exchange Inc.","United States","USD"
"CSCO","CISCO SYSTEMS INC","Equity","1.76","55.49","340,270.00","18,881,582.30","18,881,582.30","Information Technology","US17275R1023","NASDAQ","United States","USD"
"UNH","UNITEDHEALTH GROUP INC","Equity","1.76","248.75","75,897.00","18,879,378.75","18,879,378.75","Health Care","US91324P1021","New York Stock Exchange Inc.","United States","USD"
"DIS","WALT DISNEY","Equity","1.58","114.96","147,827.00","16,994,191.92","16,994,191.92","Communication","US2546871060","New York Stock Exchange Inc.","United States","USD"
"BA","BOEING","Equity","1.48","374.52","42,460.00","15,902,119.20","15,902,119.20","Industrials","US0970231058","New York Stock Exchange Inc.","United States","USD"
"NOVN","NOVARTIS AG","Equity","1.42","94.91","160,367.00","15,219,696.67","15,219,696.67","Health Care","CH0012005267","Six Swiss Exchange Ag","Switzerland","CHF"
"BRKB","BERKSHIRE HATHAWAY INC CLASS B","Equity","1.41","205.25","73,989.00","15,186,242.25","15,186,242.25","Financials","US0846707026","New York Stock Exchange Inc.","United States","USD"
"CMCSA","COMCAST CORP CLASS A","Equity","1.27","40.71","336,498.00","13,698,833.58","13,698,833.58","Communication","US20030N1019","NASDAQ","United States","USD"
"LLY","ELI LILLY","Equity","1.24","127.16","104,569.00","13,296,994.04","13,296,994.04","Health Care","US5324571083","New York Stock Exchange Inc.","United States","USD"
"ROG","ROCHE HOLDING PAR AG","Equity","1.21","274.70","47,249.00","12,979,169.30","12,979,169.30","Health Care","CH0012032048","Six Swiss Exchange Ag","Switzerland","CHF"
"ABT","ABBOTT LABORATORIES","Equity","1.16","78.52","158,321.00","12,431,364.92","12,431,364.92","Health Care","US0028241000","New York Stock Exchange Inc.","United States","USD"
"KO","COCA-COLA","Equity","1.12","46.55","258,384.00","12,027,775.20","12,027,775.20","Consumer Staples","US1912161007","New York Stock Exchange Inc.","United States","USD"
"ADBE","ADOBE INC","Equity","1.07","268.81","42,933.00","11,540,819.73","11,540,819.73","Information Technology","US00724F1012","NASDAQ","United States","USD"
"COST","COSTCO WHOLESALE CORP","Equity","1.06","246.52","46,297.00","11,413,136.44","11,413,136.44","Consumer Staples","US22160K1051","NASDAQ","United States","USD"
"WMT","WALMART INC","Equity","0.98","99.23","106,427.00","10,560,751.21","10,560,751.21","Consumer Staples","US9311421039","New York Stock Exchange Inc.","United States","USD"
"NFLX","NETFLIX INC","Equity","0.90","361.41","26,901.00","9,722,290.41","9,722,290.41","Communication","US64110L1061","NASDAQ","United States","USD"
"CRM","SALESFORCE.COM INC","Equity","0.88","158.47","59,794.00","9,475,555.18","9,475,555.18","Information Technology","US79466L3024","New York Stock Exchange Inc.","United States","USD"
"UNP","UNION PACIFIC CORP","Equity","0.87","168.69","55,668.00","9,390,634.92","9,390,634.92","Industrials","US9078181081","New York Stock Exchange Inc.","United States","USD"
"NKE","NIKE INC CLASS B","Equity","0.83","84.73","105,275.00","8,919,950.75","8,919,950.75","Consumer Discretionary","US6541061031","New York Stock Exchange Inc.","United States","USD"
"TJX","TJX INC","Equity","0.82","54.33","161,365.00","8,766,960.45","8,766,960.45","Consumer Discretionary","US8725401090","New York Stock Exchange Inc.","United States","USD"
"TMO","THERMO FISHER SCIENTIFIC INC","Equity","0.79","278.42","30,343.00","8,448,098.06","8,448,098.06","Health Care","US8835561023","New York Stock Exchange Inc.","United States","USD"
"MDT","MEDTRONIC PLC","Equity","0.78","88.99","93,949.00","8,360,521.51","8,360,521.51","Health Care","IE00BTN1Y115","New York Stock Exchange Inc.","United States","USD"
"AZN","ASTRAZENECA PLC","Equity","0.72","80.72","95,481.00","7,707,037.36","7,707,037.36","Health Care","GB0009895292","London Stock Exchange","United Kingdom","GBP"
"PYPL","PAYPAL HOLDINGS INC","Equity","0.71","106.57","71,755.00","7,646,930.35","7,646,930.35","Information Technology","US70450Y1038","NASDAQ","United States","USD"
"LOW","LOWES COMPANIES INC","Equity","0.63","115.79","58,161.00","6,734,462.19","6,734,462.19","Consumer Discretionary","US5486611073","New York Stock Exchange Inc.","United States","USD"
"SAN","SANOFI SA","Equity","0.62","88.39","74,988.00","6,628,302.81","6,628,302.81","Health Care","FR0000120578","Nyse Euronext - Euronext Paris","France","EUR"
"ADP","AUTOMATIC DATA PROCESSING INC","Equity","0.61","160.46","41,145.00","6,602,126.70","6,602,126.70","Information Technology","US0530151036","NASDAQ","United States","USD"
"ANTM","ANTHEM INC","Equity","0.61","289.50","22,782.00","6,595,389.00","6,595,389.00","Health Care","US0367521038","New York Stock Exchange Inc.","United States","USD"
"ISRG","INTUITIVE SURGICAL INC","Equity","0.61","578.34","11,370.00","6,575,725.80","6,575,725.80","Health Care","US46120E6023","NASDAQ","United States","USD"
"LIN","LINDE PLC","Equity","0.60","184.84","35,165.00","6,499,898.60","6,499,898.60","Materials","IE00BZ12WP82","New York Stock Exchange Inc.","United States","USD"
"MO","ALTRIA GROUP INC","Equity","0.60","55.28","116,760.00","6,454,492.80","6,454,492.80","Consumer Staples","US02209S1033","New York Stock Exchange Inc.","United States","USD"
"INTU","INTUIT INC","Equity","0.59","260.76","24,176.00","6,304,133.76","6,304,133.76","Information Technology","US4612021034","NASDAQ","United States","USD"
"QCOM","QUALCOMM INC","Equity","0.58","57.76","108,699.00","6,278,454.24","6,278,454.24","Information Technology","US7475251036","NASDAQ","United States","USD"
"ACN","ACCENTURE PLC CLASS A","Equity","0.57","178.91","34,299.00","6,136,434.09","6,136,434.09","Information Technology","IE00B4BNMY34","New York Stock Exchange Inc.","United States","USD"
"CME","CME GROUP INC CLASS A","Equity","0.55","172.39","34,216.00","5,898,496.24","5,898,496.24","Financials","US12572Q1058","NASDAQ","United States","USD"
"CI","CIGNA CORP","Equity","0.55","167.40","35,120.00","5,879,088.00","5,879,088.00","Health Care","US1255231003","New York Stock Exchange Inc.","United States","USD"
"AMT","AMERICAN TOWER REIT CORP","Equity","0.54","196.22","29,339.00","5,756,898.58","5,756,898.58","Real Estate","US03027X1000","New York Stock Exchange Inc.","United States","USD"
"CSL","CSL LTD","Equity","0.52","142.81","39,170.00","5,594,046.35","5,594,046.35","Health Care","AU000000CSL8","Asx - All Markets","Australia","AUD"
"BSX","BOSTON SCIENTIFIC CORP","Equity","0.52","38.15","145,417.00","5,547,658.55","5,547,658.55","Health Care","US1011371077","New York Stock Exchange Inc.","United States","USD"
"COP","CONOCOPHILLIPS","Equity","0.48","66.55","77,555.00","5,161,285.25","5,161,285.25","Energy","US20825C1045","New York Stock Exchange Inc.","United States","USD"
"CSX","CSX CORP","Equity","0.47","75.62","66,669.00","5,041,509.78","5,041,509.78","Industrials","US1264081035","NASDAQ","United States","USD"
"CNR","CANADIAN NATIONAL RAILWAY","Equity","0.44","90.90","52,559.00","4,777,624.74","4,777,624.74","Industrials","CA1363751027","Toronto Stock Exchange","Canada","CAD"
"HCA","HCA HEALTHCARE INC","Equity","0.44","131.84","36,184.00","4,770,498.56","4,770,498.56","Health Care","US40412C1018","New York Stock Exchange Inc.","United States","USD"
"SPG","SIMON PROPERTY GROUP REIT INC","Equity","0.44","183.47","25,733.00","4,721,233.51","4,721,233.51","Real Estate","US8288061091","New York Stock Exchange Inc.","United States","USD"
"PGR","PROGRESSIVE CORP","Equity","0.43","72.01","64,368.00","4,635,139.68","4,635,139.68","Financials","US7433151039","New York Stock Exchange Inc.","United States","USD"
"ZTS","ZOETIS INC CLASS A","Equity","0.42","102.23","43,935.00","4,491,475.05","4,491,475.05","Health Care","US98978V1035","New York Stock Exchange Inc.","United States","USD"
"NSC","NORFOLK SOUTHERN CORP","Equity","0.41","194.03","22,640.00","4,392,839.20","4,392,839.20","Industrials","US6558441084","New York Stock Exchange Inc.","United States","USD"
"ROST","ROSS STORES INC","Equity","0.41","98.67","44,260.00","4,367,134.20","4,367,134.20","Consumer Discretionary","US7782961038","NASDAQ","United States","USD"
"6758","SONY CORP","Equity","0.40","43.12","99,600.00","4,295,068.43","4,295,068.43","Consumer Discretionary","JP3435000009","Tokyo Stock Exchange","Japan","JPY"
"ILMN","ILLUMINA INC","Equity","0.40","323.61","13,242.00","4,285,243.62","4,285,243.62","Health Care","US4523271090","NASDAQ","United States","USD"
"SAF","SAFRAN SA","Equity","0.38","138.52","29,788.00","4,126,128.01","4,126,128.01","Industrials","FR0000073272","Nyse Euronext - Euronext Paris","France","EUR"
"AIR","AIRBUS GROUP","Equity","0.38","135.97","29,938.00","4,070,710.31","4,070,710.31","Industrials","NL0000235190","Nyse Euronext - Euronext Paris","France","EUR"
"AXP","AMERICAN EXPRESS","Equity","0.37","110.70","35,632.00","3,944,462.40","3,944,462.40","Financials","US0258161092","New York Stock Exchange Inc.","United States","USD"
"WBA","WALGREEN BOOTS ALLIANCE INC","Equity","0.36","55.06","70,796.00","3,898,027.76","3,898,027.76","Consumer Staples","US9314271084","NASDAQ","United States","USD"
"TGT","TARGET CORP","Equity","0.34","81.93","43,961.00","3,601,724.73","3,601,724.73","Consumer Discretionary","US87612E1064","New York Stock Exchange Inc.","United States","USD"
"EW","EDWARDS LIFESCIENCES CORP","Equity","0.31","188.53","17,770.00","3,350,178.10","3,350,178.10","Health Care","US28176E1082","New York Stock Exchange Inc.","United States","USD"
"ORLY","OREILLY AUTOMOTIVE INC","Equity","0.31","401.99","8,228.00","3,307,573.72","3,307,573.72","Consumer Discretionary","US67103H1077","NASDAQ","United States","USD"
"AMS","AMADEUS IT GROUP SA","Equity","0.30","80.86","40,005.00","3,234,707.09","3,234,707.09","Information Technology","ES0109067019","Bolsa De Madrid","Spain","EUR"
"ECL","ECOLAB INC","Equity","0.29","181.24","17,469.00","3,166,081.56","3,166,081.56","Materials","US2788651006","New York Stock Exchange Inc.","United States","USD"
"BDX","BECTON DICKINSON","Equity","0.29","250.99","12,518.00","3,141,892.82","3,141,892.82","Health Care","US0758871091","New York Stock Exchange Inc.","United States","USD"
"FISV","FISERV INC","Equity","0.29","88.33","35,414.00","3,128,118.62","3,128,118.62","Information Technology","US3377381088","NASDAQ","United States","USD"
"NOW","SERVICENOW INC","Equity","0.28","237.21","12,903.00","3,060,720.63","3,060,720.63","Information Technology","US81762P1021","New York Stock Exchange Inc.","United States","USD"
"XLNX","XILINX INC","Equity","0.28","129.90","23,243.00","3,019,265.70","3,019,265.70","Information Technology","US9839191015","NASDAQ","United States","USD"
"SYY","SYSCO CORP","Equity","0.28","67.24","44,733.00","3,007,846.92","3,007,846.92","Consumer Staples","US8718291078","New York Stock Exchange Inc.","United States","USD"
"4568","DAIICHI SANKYO LTD","Equity","0.28","47.48","63,000.00","2,991,545.88","2,991,545.88","Health Care","JP3475350009","Tokyo Stock Exchange","Japan","JPY"
"EXC","EXELON CORP","Equity","0.27","49.62","59,217.00","2,938,347.54","2,938,347.54","Utilities","US30161N1019","New York Stock Exchange Inc.","United States","USD"
"SQ","SQUARE INC CLASS A","Equity","0.27","75.00","39,010.00","2,925,750.00","2,925,750.00","Information Technology","US8522341036","New York Stock Exchange Inc.","United States","USD"
"WP","WORLDPAY INC CLASS A","Equity","0.27","114.13","25,361.00","2,894,450.93","2,894,450.93","Information Technology","US9815581098","New York Stock Exchange Inc.","United States","USD"
"WM","WASTE MANAGEMENT INC","Equity","0.26","102.09","27,775.00","2,835,549.75","2,835,549.75","Industrials","US94106L1098","New York Stock Exchange Inc.","United States","USD"
"ICE","INTERCONTINENTAL EXCHANGE INC","Equity","0.25","77.00","35,250.00","2,714,250.00","2,714,250.00","Financials","US45866F1049","New York Stock Exchange Inc.","United States","USD"
"HUM","HUMANA INC","Equity","0.25","273.56","9,741.00","2,664,747.96","2,664,747.96","Health Care","US4448591028","New York Stock Exchange Inc.","United States","USD"
"AON","AON PLC CLASS A","Equity","0.25","172.79","15,309.00","2,645,242.11","2,645,242.11","Financials","GB00B5BT0K07","New York Stock Exchange Inc.","United States","USD"
"DG","DOLLAR GENERAL CORP","Equity","0.24","122.30","21,358.00","2,612,083.40","2,612,083.40","Consumer Discretionary","US2566771059","New York Stock Exchange Inc.","United States","USD"
"ERIC B","ERICSSON B","Equity","0.24","9.75","264,248.00","2,576,218.87","2,576,218.87","Information Technology","SE0000108656","Nasdaq Omx Nordic","Sweden","SEK"
"USD","USD CASH","Cash","0.24","100.00","2,569,049.00","2,569,049.46","2,569,049.46","Cash and/or Derivatives","-","-","United States","USD"
"SPGI","S&P GLOBAL INC","Equity","0.23","213.65","11,696.00","2,498,850.40","2,498,850.40","Financials","US78409V1044","New York Stock Exchange Inc.","United States","USD"
"CP","CANADIAN PACIFIC RAILWAY LTD","Equity","0.23","210.15","11,865.00","2,493,479.91","2,493,479.91","Industrials","CA13645T1003","Toronto Stock Exchange","Canada","CAD"
"9983","FAST RETAILING LTD","Equity","0.23","491.54","5,000.00","2,457,706.98","2,457,706.98","Consumer Discretionary","JP3802300008","Tokyo Stock Exchange","Japan","JPY"
"FIS","FIDELITY NATIONAL INFORMATION SERV","Equity","0.23","113.65","21,417.00","2,434,042.05","2,434,042.05","Information Technology","US31620M1062","New York Stock Exchange Inc.","United States","USD"
"MKC","MCCORMICK & CO NON-VOTING INC","Equity","0.22","153.28","15,643.00","2,397,759.04","2,397,759.04","Consumer Staples","US5797802064","New York Stock Exchange Inc.","United States","USD"
"RHT","RED HAT INC","Equity","0.22","183.05","12,898.00","2,360,978.90","2,360,978.90","Information Technology","US7565771026","New York Stock Exchange Inc.","United States","USD"
"AZO","AUTOZONE INC","Equity","0.22","1,052.54","2,225.00","2,341,901.50","2,341,901.50","Consumer Discretionary","US0533321024","New York Stock Exchange Inc.","United States","USD"
"AMD","ADVANCED MICRO DEVICES INC","Equity","0.22","28.53","81,955.00","2,338,176.15","2,338,176.15","Information Technology","US0079031078","NASDAQ","United States","USD"
"VRSK","VERISK ANALYTICS INC","Equity","0.21","135.38","16,945.00","2,294,014.10","2,294,014.10","Industrials","US92345Y1064","NASDAQ","United States","USD"
"NTR","NUTRIEN LTD","Equity","0.21","54.06","41,498.00","2,243,311.90","2,243,311.90","Materials","CA67077M1086","Toronto Stock Exchange","Canada","CAD"
"LONN","LONZA GROUP AG","Equity","0.21","308.98","7,216.00","2,229,585.83","2,229,585.83","Health Care","CH0013841017","Six Swiss Exchange Ag","Switzerland","CHF"
"6098","RECRUIT HOLDINGS LTD","Equity","0.20","27.46","79,600.00","2,186,008.53","2,186,008.53","Industrials","JP3970300004","Tokyo Stock Exchange","Japan","JPY"
"AD","KONINKLIJKE AHOLD DELHAIZE NV","Equity","0.20","25.94","83,304.00","2,160,977.84","2,160,977.84","Consumer Staples","NL0011794037","Euronext Amsterdam","Netherlands","EUR"
"LULU","LULULEMON ATHLETICA INC","Equity","0.20","169.77","12,698.00","2,155,739.46","2,155,739.46","Consumer Discretionary","US5500211090","NASDAQ","United States","USD"
"YUM","YUM BRANDS INC","Equity","0.20","99.59","21,426.00","2,133,815.34","2,133,815.34","Consumer Discretionary","US9884981013","New York Stock Exchange Inc.","United States","USD"
"EQNR","EQUINOR","Equity","0.20","23.06","92,126.00","2,124,758.59","2,124,758.59","Energy","NO0010096985","Oslo Bors Asa","Norway","NOK"
"IQV","IQVIA HOLDINGS INC","Equity","0.19","144.04","14,503.00","2,089,012.12","2,089,012.12","Health Care","US46266C1053","New York Stock Exchange Inc.","United States","USD"
"CHD","CHURCH AND DWIGHT INC","Equity","0.19","72.36","28,710.00","2,077,455.60","2,077,455.60","Consumer Staples","US1713401024","New York Stock Exchange Inc.","United States","USD"
"EL","ESSILORLUXOTTICA SA","Equity","0.19","108.56","18,873.00","2,048,869.11","2,048,869.11","Consumer Discretionary","FR0000121667","Nyse Euronext - Euronext Paris","France","EUR"
"VRSN","VERISIGN INC","Equity","0.19","189.77","10,717.00","2,033,765.09","2,033,765.09","Information Technology","US92343E1029","NASDAQ","United States","USD"
"MQG","MACQUARIE GROUP LTD DEF","Equity","0.19","93.17","21,806.00","2,031,677.77","2,031,677.77","Financials","AU000000MQG1","Asx - All Markets","Australia","AUD"
"MSI","MOTOROLA SOLUTIONS INC","Equity","0.19","140.63","14,319.00","2,013,680.97","2,013,680.97","Information Technology","US6200763075","New York Stock Exchange Inc.","United States","USD"
"ROP","ROPER TECHNOLOGIES INC","Equity","0.19","343.83","5,818.00","2,000,402.94","2,000,402.94","Industrials","US7766961061","New York Stock Exchange Inc.","United States","USD"
"4911","SHISEIDO LTD","Equity","0.19","71.38","28,000.00","1,998,510.21","1,998,510.21","Consumer Staples","JP3351600006","Tokyo Stock Exchange","Japan","JPY"
"CLX","CLOROX","Equity","0.18","153.39","12,495.00","1,916,608.05","1,916,608.05","Consumer Staples","US1890541097","New York Stock Exchange Inc.","United States","USD"
"CNC","CENTENE CORP","Equity","0.18","56.64","33,826.00","1,915,904.64","1,915,904.64","Health Care","US15135B1017","New York Stock Exchange Inc.","United States","USD"
"4503","ASTELLAS PHARMA INC","Equity","0.18","14.84","127,700.00","1,895,587.17","1,895,587.17","Health Care","JP3942400007","Tokyo Stock Exchange","Japan","JPY"
"NTAP","NETAPP INC","Equity","0.18","72.97","25,925.00","1,891,747.25","1,891,747.25","Information Technology","US64110D1046","NASDAQ","United States","USD"
"WELL","WELLTOWER INC","Equity","0.18","75.75","24,910.00","1,886,932.50","1,886,932.50","Real Estate","US95040Q1040","New York Stock Exchange Inc.","United States","USD"
"WDI","WIRECARD AG","Equity","0.17","123.31","15,048.00","1,855,620.42","1,855,620.42","Information Technology","DE0007472060","Xetra","Germany","EUR"
"TWTR","TWITTER INC","Equity","0.17","34.86","51,683.00","1,801,669.38","1,801,669.38","Communication","US90184L1026","New York Stock Exchange Inc.","United States","USD"
"EL","ESTEE LAUDER INC CLASS A","Equity","0.17","164.82","10,920.00","1,799,834.40","1,799,834.40","Consumer Staples","US5184391044","New York Stock Exchange Inc.","United States","USD"
"GIVN","GIVAUDAN SA","Equity","0.16","2,528.28","697.00","1,762,207.99","1,762,207.99","Materials","CH0010645932","Six Swiss Exchange Ag","Switzerland","CHF"
"IR","INGERSOLL RAND PLC","Equity","0.16","112.53","15,580.00","1,753,217.40","1,753,217.40","Industrials","IE00B6330302","New York Stock Exchange Inc.","United States","USD"
"GLW","CORNING INC","Equity","0.16","34.68","50,465.00","1,750,126.20","1,750,126.20","Information Technology","US2193501051","New York Stock Exchange Inc.","United States","USD"
"DB1","DEUTSCHE BOERSE AG","Equity","0.16","130.75","13,266.00","1,734,476.63","1,734,476.63","Financials","DE0005810055","Xetra","Germany","EUR"
"EXPN","EXPERIAN PLC","Equity","0.16","27.35","63,383.00","1,733,503.25","1,733,503.25","Industrials","GB00B19NLV48","London Stock Exchange","United Kingdom","GBP"
"VFC","VF CORP","Equity","0.16","89.83","19,185.00","1,723,388.55","1,723,388.55","Consumer Discretionary","US9182041080","New York Stock Exchange Inc.","United States","USD"
"FOXA","FOX CORP CLASS A","Equity","0.16","37.47","45,569.00","1,707,470.43","1,707,470.43","Communication","US35137L1052","NASDAQ","United States","USD"
"AAP","ADVANCE AUTO PARTS INC","Equity","0.16","177.59","9,426.00","1,673,963.34","1,673,963.34","Consumer Discretionary","US00751Y1064","New York Stock Exchange Inc.","United States","USD"
"WKL","WOLTERS KLUWER NV","Equity","0.15","68.61","23,929.00","1,641,650.43","1,641,650.43","Industrials","NL0000395903","Euronext Amsterdam","Netherlands","EUR"
"TMUS","T MOBILE US INC","Equity","0.15","71.23","22,853.00","1,627,819.19","1,627,819.19","Communication","US8725901040","NASDAQ","United States","USD"
"KR","KROGER","Equity","0.15","23.86","66,228.00","1,580,200.08","1,580,200.08","Consumer Staples","US5010441013","New York Stock Exchange Inc.","United States","USD"
"WCG","WELLCARE HEALTHCARE PLANS INC","Equity","0.15","285.81","5,520.00","1,577,671.20","1,577,671.20","Health Care","US94946T1060","New York Stock Exchange Inc.","United States","USD"
"FTNT","FORTINET INC","Equity","0.15","86.08","18,246.00","1,570,615.68","1,570,615.68","Information Technology","US34959E1091","NASDAQ","United States","USD"
"O","REALTY INCOME REIT CORP","Equity","0.14","72.00","21,603.00","1,555,416.00","1,555,416.00","Real Estate","US7561091049","New York Stock Exchange Inc.","United States","USD"
"VEEV","VEEVA SYSTEMS INC CLASS A","Equity","0.14","130.98","11,443.00","1,498,804.14","1,498,804.14","Health Care","US9224751084","New York Stock Exchange Inc.","United States","USD"
"INFO","IHS MARKIT LTD","Equity","0.13","54.89","26,273.00","1,442,124.97","1,442,124.97","Industrials","BMG475671050","NASDAQ","United States","USD"
"4507","SHIONOGI LTD","Equity","0.13","58.95","24,400.00","1,438,488.67","1,438,488.67","Health Care","JP3347200002","Tokyo Stock Exchange","Japan","JPY"
"RSG","REPUBLIC SERVICES INC","Equity","0.13","79.73","17,826.00","1,421,266.98","1,421,266.98","Industrials","US7607591002","New York Stock Exchange Inc.","United States","USD"
"CDW","CDW CORP","Equity","0.13","101.99","13,927.00","1,420,414.73","1,420,414.73","Information Technology","US12514G1085","NASDAQ","United States","USD"
"MTX","MTU AERO ENGINES HOLDING AG","Equity","0.13","237.62","5,950.00","1,413,825.02","1,413,825.02","Industrials","DE000A0D9PT0","Xetra","Germany","EUR"
"4523","EISAI LTD","Equity","0.13","57.63","24,100.00","1,388,791.56","1,388,791.56","Health Care","JP3160400002","Tokyo Stock Exchange","Japan","JPY"
"CMG","CHIPOTLE MEXICAN GRILL INC","Equity","0.13","714.68","1,939.00","1,385,764.52","1,385,764.52","Consumer Discretionary","US1696561059","New York Stock Exchange Inc.","United States","USD"
"ULTA","ULTA BEAUTY INC","Equity","0.13","354.47","3,867.00","1,370,735.49","1,370,735.49","Consumer Discretionary","US90384S3031","NASDAQ","United States","USD"
"IAC","IAC INTERACTIVE","Equity","0.13","210.05","6,445.00","1,353,772.25","1,353,772.25","Communication","US44919P5089","NASDAQ","United States","USD"
"GMG","GOODMAN GROUP UNITS","Equity","0.13","9.27","145,373.00","1,347,926.51","1,347,926.51","Real Estate","AU000000GMG2","Asx - All Markets","Australia","AUD"
"DSY","DASSAULT SYSTEMES","Equity","0.12","151.47","8,843.00","1,339,424.23","1,339,424.23","Information Technology","FR0000130650","Nyse Euronext - Euronext Paris","France","EUR"
"JKHY","JACK HENRY ANS ASSOCIATES INC","Equity","0.12","141.37","9,344.00","1,320,961.28","1,320,961.28","Information Technology","US4262811015","NASDAQ","United States","USD"
"TSCO","TRACTOR SUPPLY","Equity","0.12","101.67","12,852.00","1,306,662.84","1,306,662.84","Consumer Discretionary","US8923561067","NASDAQ","United States","USD"
"DXCM","DEXCOM INC","Equity","0.12","114.95","11,322.00","1,301,463.90","1,301,463.90","Health Care","US2521311074","NASDAQ","United States","USD"
"IDXX","IDEXX LABORATORIES INC","Equity","0.12","227.75","5,686.00","1,294,986.50","1,294,986.50","Health Care","US45168D1046","NASDAQ","United States","USD"
"2","CLP HOLDINGS LTD","Equity","0.12","11.54","111,000.00","1,281,114.77","1,281,114.77","Utilities","HK0002007356","Hong Kong Exchanges And Clearing Ltd","Hong Kong","HKD"
"WEED","CANOPY GROWTH CORP","Equity","0.12","42.70","29,677.00","1,267,305.56","1,267,305.56","Health Care","CA1380351009","Toronto Stock Exchange","Canada","CAD"
"8267","AEON LTD","Equity","0.12","19.42","65,000.00","1,262,373.79","1,262,373.79","Consumer Staples","JP3388200002","Tokyo Stock Exchange","Japan","JPY"
"GIB.A","CGI INC","Equity","0.12","69.14","18,148.00","1,254,676.54","1,254,676.54","Information Technology","CA12532H1047","Toronto Stock Exchange","Canada","CAD"
"9735","SECOM LTD","Equity","0.12","83.56","15,000.00","1,253,444.02","1,253,444.02","Industrials","JP3421800008","Tokyo Stock Exchange","Japan","JPY"
"HRL","HORMEL FOODS CORP","Equity","0.11","42.32","29,084.00","1,230,834.88","1,230,834.88","Consumer Staples","US4404521001","New York Stock Exchange Inc.","United States","USD"
"CTAS","CINTAS CORP","Equity","0.11","206.31","5,899.00","1,217,022.69","1,217,022.69","Industrials","US1729081059","NASDAQ","United States","USD"
"KEYS","KEYSIGHT TECHNOLOGIES INC","Equity","0.11","89.85","13,532.00","1,215,850.20","1,215,850.20","Information Technology","US49338L1035","New York Stock Exchange Inc.","United States","USD"
"4543","TERUMO CORP","Equity","0.11","30.43","39,400.00","1,199,061.25","1,199,061.25","Health Care","JP3546800008","Tokyo Stock Exchange","Japan","JPY"
"4661","ORIENTAL LAND LTD","Equity","0.11","110.84","10,800.00","1,197,038.37","1,197,038.37","Consumer Discretionary","JP3198900007","Tokyo Stock Exchange","Japan","JPY"
"8031","MITSUI LTD","Equity","0.11","15.89","75,200.00","1,194,561.36","1,194,561.36","Industrials","JP3893600001","Tokyo Stock Exchange","Japan","JPY"
"LW","LAMB WESTON HOLDINGS INC","Equity","0.11","72.87","16,377.00","1,193,391.99","1,193,391.99","Consumer Staples","US5132721045","New York Stock Exchange Inc.","United States","USD"
"SHOP","SHOPIFY SUBORDINATE VOTING INC CLA","Equity","0.11","199.95","5,950.00","1,189,687.42","1,189,687.42","Information Technology","CA82509L1076","Toronto Stock Exchange","Canada","CAD"
"BURL","BURLINGTON STORES INC","Equity","0.11","157.23","7,501.00","1,179,382.23","1,179,382.23","Consumer Discretionary","US1220171060","New York Stock Exchange Inc.","United States","USD"
"3","HONG KONG AND CHINA GAS LTD","Equity","0.11","2.42","486,400.00","1,176,701.70","1,176,701.70","Utilities","HK0003000038","Hong Kong Exchanges And Clearing Ltd","Hong Kong","HKD"
"TDG","TRANSDIGM GROUP INC","Equity","0.11","462.32","2,542.00","1,175,217.44","1,175,217.44","Industrials","US8936411003","New York Stock Exchange Inc.","United States","USD"
"KSS","KOHLS CORP","Equity","0.11","72.81","16,059.00","1,169,255.79","1,169,255.79","Consumer Discretionary","US5002551043","New York Stock Exchange Inc.","United States","USD"
"SPLK","SPLUNK INC","Equity","0.11","129.63","9,003.00","1,167,058.89","1,167,058.89","Information Technology","US8486371045","NASDAQ","United States","USD"
"FE","FIRSTENERGY CORP","Equity","0.11","40.42","28,731.00","1,161,307.02","1,161,307.02","Utilities","US3379321074","New York Stock Exchange Inc.","United States","USD"
"MSCI","MSCI INC","Equity","0.11","211.00","5,496.00","1,159,656.00","1,159,656.00","Financials","US55354G1004","New York Stock Exchange Inc.","United States","USD"
"DRI","DARDEN RESTAURANTS INC","Equity","0.11","119.33","9,704.00","1,157,978.32","1,157,978.32","Consumer Discretionary","US2371941053","New York Stock Exchange Inc.","United States","USD"
"NESTE","NESTE","Equity","0.11","37.39","30,759.00","1,150,023.03","1,150,023.03","Energy","FI0009013296","Nasdaq Omx Helsinki Ltd.","Finland","EUR"
"GDDY","GODADDY INC CLASS A","Equity","0.11","74.98","15,219.00","1,141,120.62","1,141,120.62","Information Technology","US3802371076","New York Stock Exchange Inc.","United States","USD"
"SWMA","SWEDISH MATCH","Equity","0.11","49.61","22,994.00","1,140,744.46","1,140,744.46","Consumer Staples","SE0000310336","Nasdaq Omx Nordic","Sweden","SEK"
"RMD","RESMED INC","Equity","0.10","101.46","11,090.00","1,125,191.40","1,125,191.40","Health Care","US7611521078","New York Stock Exchange Inc.","United States","USD"
"TSS","TOTAL SYSTEM SERVICES INC","Equity","0.10","97.74","11,494.00","1,123,423.56","1,123,423.56","Information Technology","US8919061098","New York Stock Exchange Inc.","United States","USD"
"ABMD","ABIOMED INC","Equity","0.10","282.95","3,970.00","1,123,311.50","1,123,311.50","Health Care","US0036541003","NASDAQ","United States","USD"
"FLT","FLEETCOR TECHNOLOGIES INC","Equity","0.10","250.88","4,465.00","1,120,179.20","1,120,179.20","Information Technology","US3390411052","New York Stock Exchange Inc.","United States","USD"
"IT","GARTNER INC","Equity","0.10","156.56","6,987.00","1,093,884.72","1,093,884.72","Information Technology","US3666511072","New York Stock Exchange Inc.","United States","USD"
"HO","THALES SA","Equity","0.10","121.51","8,998.00","1,093,361.24","1,093,361.24","Industrials","FR0000121329","Nyse Euronext - Euronext Paris","France","EUR"
"PANW","PALO ALTO NETWORKS INC","Equity","0.10","238.88","4,553.00","1,087,620.64","1,087,620.64","Information Technology","US6974351057","New York Stock Exchange Inc.","United States","USD"
"SLHN","SWISS LIFE HOLDING AG","Equity","0.10","455.11","2,389.00","1,087,256.83","1,087,256.83","Financials","CH0014852781","Six Swiss Exchange Ag","Switzerland","CHF"
"MRK","MERCK","Equity","0.10","115.37","9,408.00","1,085,439.23","1,085,439.23","Health Care","DE0006599905","Xetra","Germany","EUR"
"MELI","MERCADOLIBRE INC","Equity","0.10","506.50","2,141.00","1,084,416.50","1,084,416.50","Consumer Discretionary","US58733R1023","NASDAQ","United States","USD"
"AES","AES CORP","Equity","0.10","17.99","59,889.00","1,077,403.11","1,077,403.11","Utilities","US00130H1059","New York Stock Exchange Inc.","United States","USD"
"CSU","CONSTELLATION SOFTWARE INC","Equity","0.10","876.96","1,225.00","1,074,280.27","1,074,280.27","Information Technology","CA21037X1006","Toronto Stock Exchange","Canada","CAD"
"BR","BROADRIDGE FINANCIAL SOLUTIONS INC","Equity","0.10","109.22","9,829.00","1,073,523.38","1,073,523.38","Information Technology","US11133T1034","New York Stock Exchange Inc.","United States","USD"
"4519","CHUGAI PHARMACEUTICAL LTD","Equity","0.10","64.26","16,600.00","1,066,690.60","1,066,690.60","Health Care","JP3519400000","Tokyo Stock Exchange","Japan","JPY"
"HSY","HERSHEY FOODS","Equity","0.10","116.27","8,977.00","1,043,755.79","1,043,755.79","Consumer Staples","US4278661081","New York Stock Exchange Inc.","United States","USD"
"5020","JXTG HOLDINGS INC","Equity","0.10","4.84","215,600.00","1,043,316.31","1,043,316.31","Energy","JP3386450005","Tokyo Stock Exchange","Japan","JPY"
"GPN","GLOBAL PAYMENTS INC","Equity","0.10","136.63","7,573.00","1,034,698.99","1,034,698.99","Information Technology","US37940X1028","New York Stock Exchange Inc.","United States","USD"
"LSE","LONDON STOCK EXCHANGE GROUP PLC","Equity","0.09","63.48","15,963.00","1,013,346.44","1,013,346.44","Financials","GB00B0SWJX34","London Stock Exchange","United Kingdom","GBP"
"JEC","JACOBS ENGINEERING GROUP INC","Equity","0.09","76.70","12,878.00","987,742.60","987,742.60","Industrials","US4698141078","New York Stock Exchange Inc.","United States","USD"
"RMS","HERMES INTERNATIONAL","Equity","0.09","672.76","1,468.00","987,614.63","987,614.63","Consumer Discretionary","FR0000052292","Nyse Euronext - Euronext Paris","France","EUR"
"COLO B","COLOPLAST B","Equity","0.09","108.16","9,120.00","986,444.21","986,444.21","Health Care","DK0060448595","Omx Nordic Exchange Copenhagen A/S","Denmark","DKK"
"GWW","WW GRAINGER INC","Equity","0.09","314.96","3,130.00","985,824.80","985,824.80","Industrials","US3848021040","New York Stock Exchange Inc.","United States","USD"
"TEVA","TEVA PHARMACEUTICAL INDUSTRIES ADR","Equity","0.09","15.04","64,858.00","975,464.32","975,464.32","Health Care","US8816242098","New York Stock Exchange Inc.","Israel","USD"
"TRI","THOMSON REUTERS CORP","Equity","0.09","58.82","16,284.00","957,767.33","957,767.33","Industrials","CA8849037095","Toronto Stock Exchange","Canada","CAD"
"DOV","DOVER CORP","Equity","0.09","96.68","9,827.00","950,074.36","950,074.36","Industrials","US2600031080","New York Stock Exchange Inc.","United States","USD"
"UCB","UCB SA","Equity","0.09","88.04","10,687.00","940,909.20","940,909.20","Health Care","BE0003739530","Nyse Euronext - Euronext Brussels","Belgium","EUR"
"CINF","CINCINNATI FINANCIAL CORP","Equity","0.09","85.66","10,839.00","928,468.74","928,468.74","Financials","US1720621010","NASDAQ","United States","USD"
"W","WAYFAIR INC CLASS A","Equity","0.09","149.92","6,192.00","928,304.64","928,304.64","Consumer Discretionary","US94419L1017","New York Stock Exchange Inc.","United States","USD"
"HCP","HCP REIT INC","Equity","0.09","30.92","29,590.00","914,922.80","914,922.80","Real Estate","US40414L1098","New York Stock Exchange Inc.","United States","USD"
"2801","KIKKOMAN CORP","Equity","0.08","48.28","18,800.00","907,731.66","907,731.66","Consumer Staples","JP3240400006","Tokyo Stock Exchange","Japan","JPY"
"NRG","NRG ENERGY INC","Equity","0.08","41.95","21,612.00","906,623.40","906,623.40","Utilities","US6293775085","New York Stock Exchange Inc.","United States","USD"
"BBY","BEST BUY INC","Equity","0.08","74.82","12,002.00","897,989.64","897,989.64","Consumer Discretionary","US0865161014","New York Stock Exchange Inc.","United States","USD"
"CSGP","COSTAR GROUP INC","Equity","0.08","480.00","1,870.00","897,600.00","897,600.00","Industrials","US22160N1090","NASDAQ","United States","USD"
"CCEP","COCA COLA EUROPEAN PARTNERS PLC","Equity","0.08","51.60","17,311.00","893,247.60","893,247.60","Consumer Staples","GB00BDCPN049","New York Stock Exchange Inc.","Netherlands","USD"
"FFIV","F5 NETWORKS INC","Equity","0.08","167.88","5,270.00","884,727.60","884,727.60","Information Technology","US3156161024","NASDAQ","United States","USD"
"AJG","ARTHUR J GALLAGHER","Equity","0.08","77.96","11,315.00","882,117.40","882,117.40","Financials","US3635761097","New York Stock Exchange Inc.","United States","USD"
"DISCK","DISCOVERY INC SERIES C","Equity","0.08","27.04","32,529.00","879,584.16","879,584.16","Communication","US25470F3029","NASDAQ","United States","USD"
"EDEN","EDENRED SA","Equity","0.08","46.67","18,715.00","873,385.18","873,385.18","Industrials","FR0010908533","Nyse Euronext - Euronext Paris","France","EUR"
"LYV","LIVE NATION ENTERTAINMENT INC","Equity","0.08","63.58","13,723.00","872,508.34","872,508.34","Communication","US5380341090","New York Stock Exchange Inc.","United States","USD"
"SSNC","SS AND C TECHNOLOGIES HOLDINGS INC","Equity","0.08","63.72","13,574.00","864,935.28","864,935.28","Information Technology","US78467J1007","NASDAQ","United States","USD"
"DPZ","DOMINOS PIZZA INC","Equity","0.08","247.50","3,488.00","863,280.00","863,280.00","Consumer Discretionary","US25754A2015","New York Stock Exchange Inc.","United States","USD"
"TTWO","TAKE TWO INTERACTIVE SOFTWARE INC","Equity","0.08","94.29","8,907.00","839,841.03","839,841.03","Communication","US8740541094","NASDAQ","United States","USD"
"ORSTED","ORSTED","Equity","0.08","77.42","10,721.00","830,004.56","830,004.56","Utilities","DK0060094928","Omx Nordic Exchange Copenhagen A/S","Denmark","DKK"
"CPRT","COPART INC","Equity","0.08","64.64","12,806.00","827,779.84","827,779.84","Industrials","US2172041061","NASDAQ","United States","USD"
"CHR","CHR HANSEN HOLDING","Equity","0.08","101.04","8,164.00","824,910.20","824,910.20","Materials","DK0060227585","Omx Nordic Exchange Copenhagen A/S","Denmark","DKK"
"CTXS","CITRIX SYSTEMS INC","Equity","0.08","100.93","8,170.00","824,598.10","824,598.10","Information Technology","US1773761002","NASDAQ","United States","USD"
"AKAM","AKAMAI TECHNOLOGIES INC","Equity","0.08","74.47","11,048.00","822,744.56","822,744.56","Information Technology","US00971T1016","NASDAQ","United States","USD"
"8028","FAMILYMART UNY HOLDINGS LTD","Equity","0.08","24.59","33,100.00","813,946.60","813,946.60","Consumer Staples","JP3802600001","Tokyo Stock Exchange","Japan","JPY"
"MOWI","MOWI","Equity","0.07","22.37","35,794.00","800,852.36","800,852.36","Consumer Staples","NO0003054108","Oslo Bors Asa","Norway","NOK"
"NICE","NICE LTD","Equity","0.07","122.35","6,529.00","798,804.68","798,804.68","Information Technology","IL0002730112","Tel Aviv Stock Exchange","Israel","ILS"
"SY1","SYMRISE AG","Equity","0.07","92.43","8,566.00","791,793.00","791,793.00","Materials","DE000SYM9999","Xetra","Germany","EUR"
"LUMI","BANK LEUMI LE ISRAEL","Equity","0.07","6.77","115,305.00","780,879.14","780,879.14","Financials","IL0006046119","Tel Aviv Stock Exchange","Israel","ILS"
"NNN","NATIONAL RETAIL PROPERTIES REIT IN","Equity","0.07","53.56","14,154.00","758,088.24","758,088.24","Real Estate","US6374171063","New York Stock Exchange Inc.","United States","USD"
"HFC","HOLLYFRONTIER CORP","Equity","0.07","49.18","15,369.00","755,847.42","755,847.42","Energy","US4361061082","New York Stock Exchange Inc.","United States","USD"
"TRU","TRANSUNION","Equity","0.07","68.18","11,054.00","753,661.72","753,661.72","Industrials","US89400J1079","New York Stock Exchange Inc.","United States","USD"
"BHC","BAUSCH HEALTH COMPANIES INC","Equity","0.07","25.78","29,216.00","753,176.18","753,176.18","Health Care","CA0717341071","Toronto Stock Exchange","Canada","CAD"
"UHS","UNIVERSAL HEALTH SERVICES INC CLAS","Equity","0.07","133.00","5,555.00","738,815.00","738,815.00","Health Care","US9139031002","New York Stock Exchange Inc.","United States","USD"
"VMW","VMWARE INC CLASS A","Equity","0.07","186.52","3,946.00","736,007.92","736,007.92","Information Technology","US9285634021","New York Stock Exchange Inc.","United States","USD"
"8002","MARUBENI CORP","Equity","0.07","7.23","101,600.00","735,021.40","735,021.40","Industrials","JP3877600001","Tokyo Stock Exchange","Japan","JPY"
"QIA","QIAGEN NV","Equity","0.07","41.34","17,710.00","732,148.52","732,148.52","Health Care","NL0012169213","Deutsche Boerse Xetra","Germany","EUR"
"4578","OTSUKA HOLDINGS LTD","Equity","0.07","39.02","18,600.00","725,804.80","725,804.80","Health Care","JP3188220002","Tokyo Stock Exchange","Japan","JPY"
"JNPR","JUNIPER NETWORKS INC","Equity","0.07","27.34","26,539.00","725,576.26","725,576.26","Information Technology","US48203R1041","New York Stock Exchange Inc.","United States","USD"
"MOS","MOSAIC","Equity","0.07","27.85","25,997.00","724,016.45","724,016.45","Materials","US61945C1036","New York Stock Exchange Inc.","United States","USD"
"TEP","TELEPERFORMANCE","Equity","0.07","186.38","3,870.00","721,282.18","721,282.18","Industrials","FR0000051807","Nyse Euronext - Euronext Paris","France","EUR"
"ACB","AURORA CANNABIS INC","Equity","0.07","9.00","79,652.00","716,745.45","716,745.45","Health Care","CA05156X1087","Toronto Stock Exchange","Canada","CAD"
"FOX","FOX CORP CLASS B","Equity","0.07","36.85","19,230.00","708,625.50","708,625.50","Communication","US35137L2043","NASDAQ","United States","USD"
"UPM","UPM-KYMMENE","Equity","0.07","30.20","23,233.00","701,714.27","701,714.27","Materials","FI0009005987","Nasdaq Omx Helsinki Ltd.","Finland","EUR"
"GRMN","GARMIN LTD","Equity","0.06","89.10","7,803.00","695,247.30","695,247.30","Consumer Discretionary","CH0114405324","NASDAQ","United States","USD"
"M","MACYS INC","Equity","0.06","25.66","26,995.00","692,691.70","692,691.70","Consumer Discretionary","US55616P1049","New York Stock Exchange Inc.","United States","USD"
"CF","CF INDUSTRIES HOLDINGS INC","Equity","0.06","43.56","15,725.00","684,981.00","684,981.00","Materials","US1252691001","New York Stock Exchange Inc.","United States","USD"
"ICSUAGD","BLK ICS USD LIQ AGENCY DIS","Money Market","0.06","1.00","665,130.00","665,130.31","665,130.31","Cash and/or Derivatives","IE00B50QMP13","-","Ireland","USD"
"DELL","DELL TECHNOLOGIES INC CLASS C","Equity","0.06","62.49","10,606.00","662,768.94","662,768.94","Information Technology","US24703L2025","New York Stock Exchange Inc.","United States","USD"
"VAR","VARIAN MEDICAL SYSTEMS INC","Equity","0.06","141.97","4,637.00","658,314.89","658,314.89","Health Care","US92220P1057","New York Stock Exchange Inc.","United States","USD"
"JPY","JPY CASH","Cash","0.06","0.90","72,175,636.00","647,750.82","647,750.82","Cash and/or Derivatives","-","-","Japan","JPY"
"9503","KANSAI ELECTRIC POWER INC","Equity","0.06","14.49","44,300.00","641,689.03","641,689.03","Utilities","JP3228600007","Tokyo Stock Exchange","Japan","JPY"
"UGI","UGI CORP","Equity","0.06","53.02","11,957.00","633,960.14","633,960.14","Utilities","US9026811052","New York Stock Exchange Inc.","United States","USD"
"EDF","ELECTRICITE DE FRANCE SA","Equity","0.06","13.46","47,041.00","633,053.90","633,053.90","Utilities","FR0010242511","Nyse Euronext - Euronext Paris","France","EUR"
"SESG","SES SA FDR","Equity","0.06","17.40","36,216.00","630,122.82","630,122.82","Communication","LU0088087324","Nyse Euronext - Euronext Paris","France","EUR"
"LISN","CHOCOLADEFABRIKEN LINDT & SPRUENGL","Equity","0.06","78,670.80","8.00","629,366.43","629,366.43","Consumer Staples","CH0010570759","SIX Swiss Exchange","Switzerland","CHF"
"LUPE","LUNDIN PETROLEUM","Equity","0.06","34.14","18,382.00","627,555.02","627,555.02","Energy","SE0000825820","Nasdaq Omx Nordic","Sweden","SEK"
"NTGY","NATURGY ENERGY SA","Equity","0.06","28.49","21,937.00","625,020.12","625,020.12","Utilities","ES0116870314","Bolsa De Madrid","Spain","EUR"
"CHF","CHF CASH","Cash","0.06","100.09","622,635.00","623,196.07","623,196.07","Cash and/or Derivatives","-","-","Switzerland","CHF"
"CRDA","CRODA INTERNATIONAL PLC","Equity","0.06","66.50","9,301.00","618,471.45","618,471.45","Materials","GB00BYZWX769","London Stock Exchange","United Kingdom","GBP"
"PGHN","PARTNERS GROUP HOLDING AG","Equity","0.06","750.48","815.00","611,637.47","611,637.47","Financials","CH0024608827","Six Swiss Exchange Ag","Switzerland","CHF"
"9008","KEIO CORP","Equity","0.06","60.76","10,000.00","607,583.58","607,583.58","Industrials","JP3277800003","Tokyo Stock Exchange","Japan","JPY"
"ROL","ROLLINS INC","Equity","0.06","41.81","14,518.00","606,997.58","606,997.58","Industrials","US7757111049","New York Stock Exchange Inc.","United States","USD"
"4684","OBIC LTD","Equity","0.06","106.08","5,600.00","594,049.81","594,049.81","Information Technology","JP3173400007","Tokyo Stock Exchange","Japan","JPY"
"TEMN","TEMENOS AG","Equity","0.05","155.94","3,775.00","588,674.81","588,674.81","Information Technology","CH0012453913","Six Swiss Exchange Ag","Switzerland","CHF"
"LISP","CHOCOLADEFABRIKEN LINDT & SPRUENGL","Equity","0.05","6,801.12","86.00","584,896.41","584,896.41","Consumer Staples","CH0010570767","SIX Swiss Exchange","Switzerland","CHF"
"8951","NIPPON BUILDING FUND REIT INC","Equity","0.05","6,506.62","89.00","579,089.07","579,089.07","Real Estate","JP3027670003","Tokyo Stock Exchange","Japan","JPY"
"SCR","SCOR","Equity","0.05","43.85","12,992.00","569,728.83","569,728.83","Financials","FR0010411983","Nyse Euronext - Euronext Paris","France","EUR"
"STO","SANTOS LTD","Equity","0.05","4.86","115,828.00","562,560.73","562,560.73","Energy","AU000000STO6","Asx - All Markets","Australia","AUD"
"7532","PAN PACIFIC INTERNATIONAL HOLDINGS","Equity","0.05","63.18","8,900.00","562,315.46","562,315.46","Consumer Discretionary","JP3639650005","Tokyo Stock Exchange","Japan","JPY"
"9064","YAMATO HOLDINGS LTD","Equity","0.05","25.22","21,700.00","547,247.03","547,247.03","Industrials","JP3940000007","Tokyo Stock Exchange","Japan","JPY"
"APA","APA GROUP UNITS","Equity","0.05","6.90","78,282.00","540,203.22","540,203.22","Utilities","AU000000APA1","Asx - All Markets","Australia","AUD"
"9613","NTT DATA CORP","Equity","0.05","10.81","49,800.00","538,559.57","538,559.57","Information Technology","JP3165700000","Tokyo Stock Exchange","Japan","JPY"
"DIM","SARTORIUS STEDIM BIOTECH SA","Equity","0.05","128.04","4,205.00","538,421.89","538,421.89","Health Care","FR0013154002","Nyse Euronext - Euronext Paris","France","EUR"
"9501","TOKYO ELECTRIC POWER HOLDINGS INC","Equity","0.05","5.99","89,000.00","532,761.95","532,761.95","Utilities","JP3585800000","Tokyo Stock Exchange","Japan","JPY"
"PSON","PEARSON PLC","Equity","0.05","10.93","48,258.00","527,306.19","527,306.19","Communication","GB0006776081","London Stock Exchange","United Kingdom","GBP"
"2784","ALFRESA HOLDINGS CORP","Equity","0.05","28.18","18,400.00","518,519.18","518,519.18","Health Care","JP3126340003","Tokyo Stock Exchange","Japan","JPY"
"6762","TDK CORP","Equity","0.05","85.71","5,900.00","505,676.46","505,676.46","Information Technology","JP3538800008","Tokyo Stock Exchange","Japan","JPY"
"RL","RALPH LAUREN CORP CLASS A","Equity","0.05","127.40","3,952.00","503,484.80","503,484.80","Consumer Discretionary","US7512121010","New York Stock Exchange Inc.","United States","USD"
"NDAQ","NASDAQ INC","Equity","0.05","88.76","5,660.00","502,381.60","502,381.60","Financials","US6311031081","NASDAQ","United States","USD"
"SRT3","SARTORIUS PREF AG","Equity","0.05","179.62","2,753.00","494,496.41","494,496.41","Health Care","DE0007165631","Xetra","Germany","EUR"
"ALL","ARISTOCRAT LEISURE LTD","Equity","0.05","18.78","25,907.00","486,517.80","486,517.80","Consumer Discretionary","AU000000ALL7","Asx - All Markets","Australia","AUD"
"AT1","AROUNDTOWN PROPERTY HOLDINGS SA","Equity","0.05","8.04","60,404.00","485,555.06","485,555.06","Real Estate","LU1673108939","Xetra","Germany","EUR"
"UAL","UNITED CONTINENTAL HOLDINGS INC","Equity","0.04","84.58","5,619.00","475,255.02","475,255.02","Industrials","US9100471096","NASDAQ","United States","USD"
"JWN","NORDSTROM INC","Equity","0.04","45.07","10,521.00","474,181.47","474,181.47","Consumer Discretionary","US6556641008","New York Stock Exchange Inc.","United States","USD"
"SHL","SIEMENS HEALTHINEERS AG","Equity","0.04","41.50","11,384.00","472,420.38","472,420.38","Health Care","DE000SHL1006","Xetra","Germany","EUR"
"DISCA","DISCOVERY INC SERIES A","Equity","0.04","28.87","16,083.00","464,316.21","464,316.21","Communication","US25470F1049","NASDAQ","United States","USD"
"CPU","COMPUTERSHARE LTD","Equity","0.04","12.31","36,892.00","454,253.91","454,253.91","Information Technology","AU000000CPU5","Asx - All Markets","Australia","AUD"
"AUTO","AUTO TRADER GROUP PLC","Equity","0.04","6.90","65,730.00","453,711.61","453,711.61","Communication","GB00BVYVFW23","London Stock Exchange","United Kingdom","GBP"
"8473","SBI HOLDINGS INC","Equity","0.04","22.77","19,400.00","441,712.36","441,712.36","Financials","JP3436120004","Tokyo Stock Exchange","Japan","JPY"
"TRIP","TRIPADVISOR INC","Equity","0.04","52.21","8,458.00","441,592.18","441,592.18","Communication","US8969452015","NASDAQ","United States","USD"
"VER","VERBUND AG","Equity","0.04","49.30","8,797.00","433,717.15","433,717.15","Utilities","AT0000746409","Wiener Boerse Ag","Austria","EUR"
"5019","IDEMITSU KOSAN LTD","Equity","0.04","33.21","12,900.00","428,359.88","428,359.88","Energy","JP3142500002","Tokyo Stock Exchange","Japan","JPY"
"HL.","HARGREAVES LANSDOWN PLC","Equity","0.04","26.45","16,150.00","427,156.35","427,156.35","Financials","GB00B1VZ0M25","London Stock Exchange","United Kingdom","GBP"
"ADP","AEROPORTS DE PARIS SA","Equity","0.04","202.93","2,077.00","421,490.24","421,490.24","Industrials","FR0010340141","Nyse Euronext - Euronext Paris","France","EUR"
"4581","TAISHO PHARMACEUTICAL HOLDINGS LTD","Equity","0.04","94.23","4,400.00","414,628.67","414,628.67","Health Care","JP3442850008","Tokyo Stock Exchange","Japan","JPY"
"VST","VISTRA ENERGY CORP","Equity","0.04","25.76","15,945.00","410,743.20","410,743.20","Utilities","US92840M1027","New York Stock Exchange Inc.","United States","USD"
"9435","HIKARI TSUSHIN INC","Equity","0.04","185.42","2,200.00","407,915.64","407,915.64","Consumer Discretionary","JP3783420007","Tokyo Stock Exchange","Japan","JPY"
"UA","UNDER ARMOUR INC CLASS C","Equity","0.04","19.50","20,536.00","400,452.00","400,452.00","Consumer Discretionary","US9043112062","New York Stock Exchange Inc.","United States","USD"
"ICL","ICL ISRAEL CHEMICALS LTD","Equity","0.04","5.39","73,496.00","396,345.64","396,345.64","Materials","IL0002810146","Tel Aviv Stock Exchange","Israel","ILS"
"9987","SUZUKEN LTD","Equity","0.04","57.35","6,900.00","395,701.14","395,701.14","Health Care","JP3398000004","Tokyo Stock Exchange","Japan","JPY"
"SGRO","SEGRO REIT PLC","Equity","0.04","8.84","44,234.00","391,102.15","391,102.15","Real Estate","GB00B5ZN1N88","London Stock Exchange","United Kingdom","GBP"
"7747","ASAHI INTECC LTD","Equity","0.04","46.49","8,300.00","385,855.96","385,855.96","Health Care","JP3110650003","Tokyo Stock Exchange","Japan","JPY"
"SPR","SPIRIT AEROSYSTEMS INC CLASS A","Equity","0.04","85.07","4,505.00","383,240.35","383,240.35","Industrials","US8485741099","New York Stock Exchange Inc.","United States","USD"
"SABR","SABRE CORP","Equity","0.04","21.69","17,617.00","382,112.73","382,112.73","Information Technology","US78573M1045","NASDAQ","United States","USD"
"UBI","UBISOFT ENTERTAINMENT SA CAT A","Equity","0.04","90.11","4,214.00","379,742.60","379,742.60","Communication","FR0000054470","Nyse Euronext - Euronext Paris","France","EUR"
"8252","MARUI GROUP LTD","Equity","0.04","19.95","18,900.00","377,067.09","377,067.09","Consumer Discretionary","JP3870400003","Tokyo Stock Exchange","Japan","JPY"
"4004","SHOWA DENKO","Equity","0.03","37.60","10,000.00","376,037.69","376,037.69","Materials","JP3368000000","Tokyo Stock Exchange","Japan","JPY"
"4021","NISSAN CHEMICAL CORP","Equity","0.03","48.28","7,700.00","371,783.71","371,783.71","Materials","JP3670800006","Tokyo Stock Exchange","Japan","JPY"
"BARN","BARRY CALLEBAUT AG","Equity","0.03","1,843.66","201.00","370,575.52","370,575.52","Consumer Staples","CH0009002962","SIX Swiss Exchange","Switzerland","CHF"
"RHI","ROBERT HALF","Equity","0.03","67.14","5,462.00","366,718.68","366,718.68","Industrials","US7703231032","New York Stock Exchange Inc.","United States","USD"
"ALO","ALSTOM SA","Equity","0.03","44.83","8,157.00","365,694.88","365,694.88","Industrials","FR0010220475","Nyse Euronext - Euronext Paris","France","EUR"
"WIX","WIX.COM LTD","Equity","0.03","119.36","3,008.00","359,034.88","359,034.88","Information Technology","IL0011301780","NASDAQ","Israel","USD"
"CCO","CAMECO CORP","Equity","0.03","11.84","30,173.00","357,334.19","357,334.19","Energy","CA13321L1085","Toronto Stock Exchange","Canada","CAD"
"COLR","ETABLISSEMENTEN FRANZ COLRUYT NV","Equity","0.03","73.99","4,780.00","353,662.90","353,662.90","Consumer Staples","BE0974256852","Nyse Euronext - Euronext Brussels","Belgium","EUR"
"SBRY","SAINSBURY(J) PLC","Equity","0.03","3.08","107,936.00","332,946.44","332,946.44","Consumer Staples","GB00B019KW72","London Stock Exchange","United Kingdom","GBP"
"MX","METHANEX CORP","Equity","0.03","59.41","5,515.00","327,642.61","327,642.61","Materials","CA59151K1084","Toronto Stock Exchange","Canada","CAD"
"SECU B","SECURITAS B","Equity","0.03","16.94","19,337.00","327,572.26","327,572.26","Industrials","SE0000163594","Nasdaq Omx Nordic","Sweden","SEK"
"PUM","PUMA","Equity","0.03","605.31","541.00","327,470.34","327,470.34","Consumer Discretionary","DE0006969603","Xetra","Germany","EUR"
"3861","OJI HOLDINGS CORP","Equity","0.03","6.38","51,300.00","327,343.95","327,343.95","Materials","JP3174410005","Tokyo Stock Exchange","Japan","JPY"
"8729","SONY FINANCIAL HOLDINGS INC","Equity","0.03","19.58","16,600.00","325,072.47","325,072.47","Financials","JP3435350008","Tokyo Stock Exchange","Japan","JPY"
"4506","DAINIPPON SUMITOMO PHARMA LTD","Equity","0.03","24.03","13,500.00","324,460.40","324,460.40","Health Care","JP3495000006","Tokyo Stock Exchange","Japan","JPY"
"4704","TREND MICRO INC","Equity","0.03","49.09","6,600.00","324,002.69","324,002.69","Information Technology","JP3637300009","Tokyo Stock Exchange","Japan","JPY"
"RYM","RYMAN HEALTHCARE LTD","Equity","0.03","8.09","39,684.00","321,083.24","321,083.24","Health Care","NZRYME0001S4","New Zealand Exchange Ltd","New Zealand","NZD"
"XPO","XPO LOGISTICS INC","Equity","0.03","59.84","5,346.00","319,904.64","319,904.64","Industrials","US9837931008","New York Stock Exchange Inc.","United States","USD"
"4902","KONICA MINOLTA INC","Equity","0.03","10.09","31,700.00","319,773.84","319,773.84","Information Technology","JP3300600008","Tokyo Stock Exchange","Japan","JPY"
"UAA","UNDER ARMOUR INC CLASS A","Equity","0.03","21.74","14,688.00","319,317.12","319,317.12","Consumer Discretionary","US9043111072","New York Stock Exchange Inc.","United States","USD"
"AIA","AUCKLAND INTERNATIONAL AIRPORT LTD","Equity","0.03","5.43","57,635.00","312,826.21","312,826.21","Industrials","NZAIAE0002S6","New Zealand Exchange Ltd","New Zealand","NZD"
"7701","SHIMADZU CORP","Equity","0.03","29.12","10,700.00","311,613.19","311,613.19","Information Technology","JP3357200009","Tokyo Stock Exchange","Japan","JPY"
"9045","KEIHAN HOLDINGS LTD","Equity","0.03","40.34","7,700.00","310,625.98","310,625.98","Industrials","JP3279400000","Tokyo Stock Exchange","Japan","JPY"
"9533","TOHO GAS LTD","Equity","0.03","44.25","7,000.00","309,715.05","309,715.05","Utilities","JP3600200004","Tokyo Stock Exchange","Japan","JPY"
"SCHB","SCHIBSTED B","Equity","0.03","36.26","8,440.00","306,044.47","306,044.47","Communication","NO0010736879","Oslo Bors Asa","Norway","NOK"
"2433","HAKUHODO DY HOLDINGS INC","Equity","0.03","16.19","18,900.00","305,995.96","305,995.96","Communication","JP3766550002","Tokyo Stock Exchange","Japan","JPY"
"5901","TOYO SEIKAN GROUP HOLDINGS LTD","Equity","0.03","20.53","14,400.00","295,689.48","295,689.48","Materials","JP3613400005","Tokyo Stock Exchange","Japan","JPY"
"SPK","SPARK NEW ZEALAND LTD","Equity","0.03","2.49","117,757.00","293,374.34","293,374.34","Communication","NZTELE0001S4","New Zealand Exchange Ltd","New Zealand","NZD"
"WG.","WOOD GROUP (JOHN) PLC","Equity","0.03","6.98","41,472.00","289,405.63","289,405.63","Energy","GB00B5N0P849","London Stock Exchange","United Kingdom","GBP"
"AKERBP","AKER BP","Equity","0.03","37.03","7,645.00","283,115.05","283,115.05","Energy","NO0010345853","Oslo Bors Asa","Norway","NOK"
"UN01","UNIPER","Equity","0.02","30.85","8,635.00","266,348.72","266,348.72","Utilities","DE000UNSE018","Xetra","Germany","EUR"
"SOL","WASHINGTON H SOUL PATTINSON & COMP","Equity","0.02","17.91","13,662.00","244,694.24","244,694.24","Energy","AU000000SOL3","Asx - All Markets","Australia","AUD"
"3064","MONOTARO LTD","Equity","0.02","22.05","10,700.00","235,942.56","235,942.56","Industrials","JP3922950005","Tokyo Stock Exchange","Japan","JPY"
"IPN","IPSEN SA","Equity","0.02","139.87","1,639.00","229,243.37","229,243.37","Health Care","FR0010259150","Nyse Euronext - Euronext Paris","France","EUR"
"ICA","ICA GRUPPEN","Equity","0.02","39.41","5,801.00","228,628.13","228,628.13","Consumer Staples","SE0000652216","Nasdaq Omx Nordic","Sweden","SEK"
"9504","CHUGOKU ELECTRIC POWER INC","Equity","0.02","12.24","18,600.00","227,690.37","227,690.37","Utilities","JP3522200009","Tokyo Stock Exchange","Japan","JPY"
"BZFUT","CASH COLLATERAL USD BZFUT","Cash Collateral and Margins","0.02","100.00","224,510.00","224,510.00","224,510.00","Cash and/or Derivatives","-","-","United States","USD"
"2371","KAKAKU.COM INC","Equity","0.02","19.56","11,200.00","219,124.97","219,124.97","Communication","JP3206000006","Tokyo Stock Exchange","Japan","JPY"
"GBP","GBP CASH","Cash","0.02","130.49","167,342.00","218,356.00","218,356.00","Cash and/or Derivatives","-","-","United Kingdom","GBP"
"4751","CYBER AGENT INC","Equity","0.02","37.83","5,600.00","211,837.56","211,837.56","Communication","JP3311400000","Tokyo Stock Exchange","Japan","JPY"
"CCL","COCA-COLA AMATIL LTD","Equity","0.02","6.00","33,185.00","199,223.64","199,223.64","Consumer Staples","AU000000CCL2","Asx - All Markets","Australia","AUD"
"9143","SG HOLDINGS LTD","Equity","0.02","28.54","6,300.00","179,798.07","179,798.07","Industrials","JP3162770006","Tokyo Stock Exchange","Japan","JPY"
"6417","SANKYO LTD","Equity","0.02","38.50","4,400.00","169,405.43","169,405.43","Consumer Discretionary","JP3326410002","Tokyo Stock Exchange","Japan","JPY"
"2002","NISSHIN SEIFUN GROUP INC","Equity","0.02","22.63","7,400.00","167,492.04","167,492.04","Consumer Staples","JP3676800000","Tokyo Stock Exchange","Japan","JPY"
"NMC","NMC HEALTH PLC","Equity","0.01","31.54","5,045.00","159,110.34","159,110.34","Health Care","GB00B7FC0762","London Stock Exchange","United Kingdom","GBP"
"TPM","TPG TELECOM LTD","Equity","0.01","4.90","29,160.00","142,872.10","142,872.10","Communication","AU000000TPM6","Asx - All Markets","Australia","AUD"
"DMP","DOMINOS PIZZA ENTERPRISES LTD","Equity","0.01","31.80","4,250.00","135,169.63","135,169.63","Consumer Discretionary","AU000000DMP0","Asx - All Markets","Australia","AUD"
"3141","WELCIA HOLDINGS LTD","Equity","0.01","34.42","3,800.00","130,787.53","130,787.53","Consumer Staples","JP3274280001","Tokyo Stock Exchange","Japan","JPY"
"CAD","CAD CASH","Cash","0.01","75.05","169,544.00","127,242.23","127,242.23","Cash and/or Derivatives","-","-","Canada","CAD"
"DEMANT","DEMANT","Equity","0.01","29.54","4,289.00","126,685.60","126,685.60","Health Care","DK0060738599","Omx Nordic Exchange Copenhagen A/S","Denmark","DKK"
"EUR","EUR CASH","Cash","0.01","112.62","112,039.00","126,172.43","126,172.43","Cash and/or Derivatives","-","-","European Union","EUR"
"4091","TAIYO NIPPON SANSO CORP","Equity","0.01","16.07","7,800.00","125,374.02","125,374.02","Materials","JP3711600001","Tokyo Stock Exchange","Japan","JPY"
"8439","TOKYO CENTURY CORP","Equity","0.01","45.41","2,400.00","108,988.11","108,988.11","Financials","JP3424950008","Tokyo Stock Exchange","Japan","JPY"
"AUD","AUD CASH","Cash","0.01","71.21","147,182.00","104,815.69","104,815.69","Cash and/or Derivatives","-","-","Australia","AUD"
"SEK","SEK CASH","Cash","0.01","10.80","799,452.00","86,370.23","86,370.23","Cash and/or Derivatives","-","-","Sweden","SEK"
"NZD","NZD CASH","Cash","0.00","67.42","71,322.00","48,088.85","48,088.85","Cash and/or Derivatives","-","-","New Zealand","NZD"
"ILS","ILS CASH","Cash","0.00","27.87","148,519.00","41,391.44","41,391.44","Cash and/or Derivatives","-","-","Israel","ILS"
"NOK","NOK CASH","Cash","0.00","11.69","337,793.00","39,486.66","39,486.66","Cash and/or Derivatives","-","-","Norway","NOK"
"DKK","DKK CASH","Cash","0.00","15.09","259,408.00","39,132.83","39,132.83","Cash and/or Derivatives","-","-","Denmark","DKK"
"HKD","HKD CASH","Cash","0.00","12.75","197,759.00","25,206.51","25,206.51","Cash and/or Derivatives","-","-","Hong Kong","HKD"
"SGD","SGD CASH","Cash","0.00","73.82","13,969.00","10,311.18","10,311.18","Cash and/or Derivatives","-","-","Singapore","SGD"
"1097","I-CABLE COMMUNICATIONS LTD","Equity","0.00","0.01","96,385.00","1,339.10","1,339.10","Communication","HK1097008929","Hong Kong Exchanges And Clearing Ltd","Hong Kong","HKD"
"IFF","INTERNATIONAL FLAVORS & FRAGRANCES","Equity","0.00","131.29","0.00","24.95","24.95","Materials","US4595061015","Tel Aviv Stock Exchange","United States","ILS"
"MFSM9","EMINI MSCI EAFE INDEX JUN 19","Futures","0.00","1,907.30","24.00","0.00","2,288,760.00","Cash and/or Derivatives","-","Ice Futures U.S.","-","USD"
"ESM9","S&P500 EMINI JUN 19","Futures","0.00","2,898.30","19.00","0.00","2,753,385.00","Cash and/or Derivatives","-","Index And Options Market","-","USD"
 