1,0.0253906
2,0.0517578
3,0.0634766
4,0.0683594
5,15.0898
6,21.1055
7,28.1055
8,36.1055
9,45.1367
10,55.1523
11,66.1523
12,78.1523
13,91.1836
14,105.184
15,120.199
16,136.184
16var,136.184
16f,136.215
16fn,136.215
16fn2,107.184
16fn2n,107.184
